…
- Function `distinct()` from package [dplyr](https://dplyr.tidyverse.org/articles/dplyr.html#select-columns-with-select)). ใช้ในการหาตัวไม่ซ้ำ ถ้าเจอตัวซ้ำตัดอ

```
sale %>% distinct(customer_name, .keep_all = FALSE) 
```
Result : 
```
# A tibble: 793 x 1
   customer_name     
   <chr>             
 1 Claire Gute       
 2 Darrin Van Huff   
 3 Sean O'Donnell    
 4 Brosina Hoffman   
 5 Andrew Allen      
 6 Irene Maddox      
 7 Harold Pawlan     
 8 Pete Kriz         
 9 Alejandro Grove   
10 Zuschuss Donatelli
# ... with 783 more rows
```
…
